labs/Lab1/paquin_lab/sim/cpu.vcd
$date
	Mon Mar 12 18:56:58 2018
$end
$version
	Icarus Verilog
$end
$timescale
	1ns
$end
$scope module main $end
$scope module uut $end
$var wire 1 ! clk $end
$var wire 1 " rst $end
$var wire 1 # unhalt $end
$var wire 112 $ regexpose [111:0] $end
$var wire 1 % reg_w_en $end
$var wire 3 & reg_w [2:0] $end
$var wire 3 ' reg_src_b [2:0] $end
$var wire 3 ( reg_src_a [2:0] $end
$var wire 3 ) pc_sel [2:0] $end
$var wire 16 * pc_next [15:0] $end
$var wire 1 + mem_w_en $end
$var wire 16 , mem_r_data [15:0] $end
$var wire 16 - jump_target [15:0] $end
$var wire 16 . instruction [15:0] $end
$var wire 16 / imm_b [15:0] $end
$var wire 16 0 imm_a [15:0] $end
$var wire 1 1 cmp_write $end
$var wire 2 2 b_sel [1:0] $end
$var wire 16 3 b_reg_out [15:0] $end
$var wire 16 4 b_data [15:0] $end
$var wire 16 5 alu_out [15:0] $end
$var wire 4 6 alu_op [3:0] $end
$var wire 2 7 a_sel [1:0] $end
$var wire 16 8 a_reg_out [15:0] $end
$var wire 16 9 a_data [15:0] $end
$var reg 1 : cmp_eq $end
$var reg 16 ; pc [15:0] $end
$scope module alu $end
$var wire 16 < a_data [15:0] $end
$var wire 16 = b_data [15:0] $end
$var wire 1 ! clk $end
$var wire 1 " rst $end
$var wire 16 > signed_a [15:0] $end
$var wire 16 ? signed_b [15:0] $end
$var wire 4 @ alu_op [3:0] $end
$var reg 16 A out [15:0] $end
$upscope $end
$scope module idecode $end
$var wire 1 ! clk $end
$var wire 1 " rst $end
$var wire 4 B opcode [3:0] $end
$var wire 16 C instruction [15:0] $end
$var wire 6 D imm_lo [5:0] $end
$var wire 6 E imm_hi [5:0] $end
$var wire 12 F imm [11:0] $end
$var reg 2 G a_sel [1:0] $end
$var reg 4 H alu_op [3:0] $end
$var reg 2 I b_sel [1:0] $end
$var reg 1 1 cmp_write $end
$var reg 16 J imm_a [15:0] $end
$var reg 16 K imm_b [15:0] $end
$var reg 16 L jump_target [15:0] $end
$var reg 1 + mem_w_en $end
$var reg 3 M pc_sel [2:0] $end
$var reg 3 N reg_a [2:0] $end
$var reg 3 O reg_b [2:0] $end
$var reg 3 P reg_w [2:0] $end
$var reg 1 % reg_w_en $end
$upscope $end
$scope module memory $end
$var wire 1 ! clk $end
$var wire 12 Q pc [11:0] $end
$var wire 12 R r_addr [11:0] $end
$var wire 1 " rst $end
$var wire 12 S w_addr [11:0] $end
$var wire 16 T w_data [15:0] $end
$var wire 1 + w_en $end
$var reg 16 U inst [15:0] $end
$var reg 16 V r_data [15:0] $end
$var integer 32 W ii [31:0] $end
$upscope $end
$scope module regfile $end
$var wire 3 X a_sel [2:0] $end
$var wire 3 Y b_sel [2:0] $end
$var wire 1 ! clk $end
$var wire 16 Z r6 [15:0] $end
$var wire 1 " rst $end
$var wire 16 [ w_data [15:0] $end
$var wire 1 % w_en $end
$var wire 3 \ w_sel [2:0] $end
$var wire 112 ] regexpose [111:0] $end
$var reg 16 ^ a_data [15:0] $end
$var reg 16 _ b_data [15:0] $end
$var integer 32 ` ii [31:0] $end
$upscope $end
$upscope $end
$upscope $end
$scope module main $end
$var wire 16 a r0 [15:0] $end
$upscope $end
$scope module main $end
$var wire 16 b r1 [15:0] $end
$upscope $end
$scope module main $end
$var wire 16 c r2 [15:0] $end
$upscope $end
$scope module main $end
$var wire 16 d r3 [15:0] $end
$upscope $end
$scope module main $end
$var wire 16 e r4 [15:0] $end
$upscope $end
$scope module main $end
$var wire 16 f r5 [15:0] $end
$upscope $end
$scope module main $end
$var wire 16 g r6 [15:0] $end
$upscope $end
$enddefinitions $end
#0
$dumpvars
b11111 g
b0 f
b0 e
b0 d
b0 c
b0 b
b0 a
b110 `
bx _
bx ^
b11111 ]
bx \
bx [
b11111 Z
bx Y
bx X
b1000000000000 W
bx V
b1010000000000000 U
bx T
bx S
bx R
b11111 Q
bx P
bx O
bx N
bx M
bx L
bx K
bx J
bx I
bx H
bx G
b0 F
b0 E
b0 D
b1010000000000000 C
b1010 B
bx A
bx @
bx ?
bx >
bx =
bx <
b11111 ;
0:
bx 9
bx 8
bx 7
bx 6
bx 5
bx 4
bx 3
bx 2
x1
bx 0
bx /
b1010000000000000 .
bx -
bx ,
x+
b11111 *
bx )
bx (
bx '
bx &
x%
b11111 $
0#
1"
1!
$end
#1
b0 ?
b0 4
b0 =
b0 R
b0 >
b0 9
b0 <
b0 S
b0 -
b0 L
b0 )
b0 M
01
0+
1%
b0 &
b0 P
b0 \
b1011 6
b1011 @
b1011 H
b1 2
b1 I
b0 '
b0 O
b0 Y
b0 /
b0 K
b0 7
b0 G
b0 (
b0 N
b0 X
b0 0
b0 J
b0 3
b0 _
b0 8
b0 ^
#2
b0 5
b0 A
b0 T
b0 [
#10
b0 ,
b0 V
b100000 Q
b100000 *
0"
0!
#20
b1001011 F
b1011 D
b1 E
b1001 B
b1001000001001011 .
b1001000001001011 C
b1001000001001011 U
b100001 Q
b100001 *
b100000 g
b100000 $
b100000 ]
b100000 ;
b100000 Z
1!
#21
b1011 ?
b1011 4
b1011 =
b1 &
b1 P
b1 \
b11 2
b11 I
b1011 /
b1011 K
#22
b1011 5
b1011 A
b1011 T
b1011 [
#30
0!
#40
b1011 b
b10010100 F
b10100 D
b10 E
b1001000010010100 .
b1001000010010100 C
b1001000010010100 U
b100010 Q
b100010 *
b100001 g
b101100000000000000000000000000000000000000000000000000000000000000000000000000100001 $
b101100000000000000000000000000000000000000000000000000000000000000000000000000100001 ]
b100001 ;
b100001 Z
1!
#41
b10100 ?
b10100 4
b10100 =
b10 &
b10 P
b10 \
b10100 /
b10100 K
#42
b10100 5
b10100 A
b10100 T
b10100 [
#50
0!
#60
b1 F
b1 D
b0 E
b1011 B
b10100 c
b1011000000000001 .
b1011000000000001 C
b1011000000000001 U
b100011 Q
b100011 *
b100010 g
b101100000000000101000000000000000000000000000000000000000000000000000000000000100010 $
b101100000000000101000000000000000000000000000000000000000000000000000000000000100010 ]
b100010 ;
b100010 Z
1!
#61
b0 ?
b0 4
b0 =
1+
0%
b0 &
b0 P
b0 \
b1 2
b1 I
b1 '
b1 O
b1 Y
b0 /
b0 K
b1 7
b1 G
#62
b1011 ?
b1011 4
b1011 =
b1011 R
b0 5
b0 A
b0 T
b0 [
b1011 3
b1011 _
#63
b1011 5
b1011 A
b1011 T
b1011 [
#70
0!
#80
b1010 B
b1010000000000001 .
b1010000000000001 C
b1010000000000001 U
b100100 Q
b100100 *
b100011 g
b101100000000000101000000000000000000000000000000000000000000000000000000000000100011 $
b101100000000000101000000000000000000000000000000000000000000000000000000000000100011 ]
b100011 ;
b100011 Z
1!
#81
0+
1%
b0 7
b0 G
#90
0!
#100
b1 B
b1011 a
b1000000000001 .
b1000000000001 C
b1000000000001 U
b100101 Q
b100101 *
b100100 g
b1011000000000000101100000000000101000000000000000000000000000000000000000000000000000000000000100100 $
b1011000000000000101100000000000101000000000000000000000000000000000000000000000000000000000000100100 ]
b100100 ;
b100100 Z
1!
#101
b0 ?
b0 4
b0 =
b1011 >
b1011 9
b1011 <
b1011 S
b1 &
b1 P
b1 \
b11 6
b11 @
b11 H
b0 2
b0 I
b0 '
b0 O
b0 Y
b1 7
b1 G
b1 (
b1 N
b1 X
b1011 8
b1011 ^
#102
b1100 5
b1100 A
b1100 T
b1100 [
#110
0!
#120
b1100 b
b10 F
b10 D
b1000 B
b1000000000000010 .
b1000000000000010 C
b1000000000000010 U
b100110 Q
b100110 *
b100101 g
b1011000000000000110000000000000101000000000000000000000000000000000000000000000000000000000000100101 $
b1011000000000000110000000000000101000000000000000000000000000000000000000000000000000000000000100101 ]
b100101 ;
b100101 Z
1!
#121
b1011 ?
b1011 4
b1011 =
b1100 >
b1100 9
b1100 <
b1100 S
11
0%
b0 &
b0 P
b0 \
b101 6
b101 @
b101 H
b1 2
b1 I
b10 '
b10 O
b10 Y
b0 (
b0 N
b0 X
b1100 8
b1100 ^
#122
b10100 ?
b10100 4
b10100 =
b10100 R
b1011 >
b1011 9
b1011 <
b1011 S
b1 5
b1 A
b1 T
b1 [
b10100 3
b10100 _
b1011 8
b1011 ^
#123
b0 5
b0 A
b0 T
b0 [
#130
0!
#140
b100010 F
b100010 D
b11 B
b11000000100010 .
b11000000100010 C
b11000000100010 U
b100111 Q
b100111 *
b100110 g
b1011000000000000110000000000000101000000000000000000000000000000000000000000000000000000000000100110 $
b1011000000000000110000000000000101000000000000000000000000000000000000000000000000000000000000100110 ]
b100110 ;
b100110 Z
1!
#141
b100010 Q
b100010 *
b0 ?
b0 4
b0 =
b0 >
b0 9
b0 <
b100010 -
b100010 L
b11 )
b11 M
01
b0 6
b0 @
b0 H
b0 2
b0 I
b0 '
b0 O
b0 Y
b0 7
b0 G
#142
b1011 R
b1011 3
b1011 _
#150
0!
#160
b1 F
b1 D
b1011 B
b1011000000000001 .
b1011000000000001 C
b1011000000000001 U
b100010 g
b1011000000000000110000000000000101000000000000000000000000000000000000000000000000000000000000100010 $
b1011000000000000110000000000000101000000000000000000000000000000000000000000000000000000000000100010 ]
b100010 ;
b100010 Z
1!
#161
b100011 Q
b100011 *
b1011 ?
b1011 4
b1011 =
b1011 >
b1011 9
b1011 <
b0 -
b0 L
b0 )
b0 M
1+
b1011 6
b1011 @
b1011 H
b1 2
b1 I
b1 '
b1 O
b1 Y
b1 7
b1 G
#162
b1100 ?
b1100 4
b1100 =
b1100 R
b1011 5
b1011 A
b1011 T
b1011 [
b1100 3
b1100 _
#163
b1100 5
b1100 A
b1100 T
b1100 [
#170
0!
#180
b1010 B
b1010000000000001 .
b1010000000000001 C
b1010000000000001 U
b100100 Q
b100100 *
b100011 g
b1011000000000000110000000000000101000000000000000000000000000000000000000000000000000000000000100011 $
b1011000000000000110000000000000101000000000000000000000000000000000000000000000000000000000000100011 ]
b100011 ;
b100011 Z
1!
#181
b0 >
b0 9
b0 <
0+
1%
b0 7
b0 G
#190
0!
#200
b1100 a
b1 B
b1000000000001 .
b1000000000001 C
b1000000000001 U
b100101 Q
b100101 *
b100100 g
b1100000000000000110000000000000101000000000000000000000000000000000000000000000000000000000000100100 $
b1100000000000000110000000000000101000000000000000000000000000000000000000000000000000000000000100100 ]
b100100 ;
b100100 Z
1!
#201
b0 ?
b0 4
b0 =
b1100 >
b1100 9
b1100 <
b1100 S
b1 &
b1 P
b1 \
b11 6
b11 @
b11 H
b0 2
b0 I
b0 '
b0 O
b0 Y
b1 7
b1 G
b1 (
b1 N
b1 X
b1100 8
b1100 ^
#202
b1101 5
b1101 A
b1101 T
b1101 [
#210
0!
#220
b10 F
b10 D
b1000 B
b1101 b
b1000000000000010 .
b1000000000000010 C
b1000000000000010 U
b100110 Q
b100110 *
b100101 g
b1100000000000000110100000000000101000000000000000000000000000000000000000000000000000000000000100101 $
b1100000000000000110100000000000101000000000000000000000000000000000000000000000000000000000000100101 ]
b100101 ;
b100101 Z
1!
#221
b1100 ?
b1100 4
b1100 =
b1101 >
b1101 9
b1101 <
b1101 S
11
0%
b0 &
b0 P
b0 \
b101 6
b101 @
b101 H
b1 2
b1 I
b10 '
b10 O
b10 Y
b0 (
b0 N
b0 X
b1101 8
b1101 ^
#222
b10100 ?
b10100 4
b10100 =
b10100 R
b1100 >
b1100 9
b1100 <
b1100 S
b1 5
b1 A
b1 T
b1 [
b10100 3
b10100 _
b1100 8
b1100 ^
#223
b0 5
b0 A
b0 T
b0 [
#230
0!
#240
b100010 F
b100010 D
b11 B
b11000000100010 .
b11000000100010 C
b11000000100010 U
b100111 Q
b100111 *
b100110 g
b1100000000000000110100000000000101000000000000000000000000000000000000000000000000000000000000100110 $
b1100000000000000110100000000000101000000000000000000000000000000000000000000000000000000000000100110 ]
b100110 ;
b100110 Z
1!
#241
b100010 Q
b100010 *
b0 ?
b0 4
b0 =
b0 >
b0 9
b0 <
b100010 -
b100010 L
b11 )
b11 M
01
b0 6
b0 @
b0 H
b0 2
b0 I
b0 '
b0 O
b0 Y
b0 7
b0 G
#242
b1100 R
b1100 3
b1100 _
#250
0!
#260
b1 F
b1 D
b1011 B
b1011000000000001 .
b1011000000000001 C
b1011000000000001 U
b100010 g
b1100000000000000110100000000000101000000000000000000000000000000000000000000000000000000000000100010 $
b1100000000000000110100000000000101000000000000000000000000000000000000000000000000000000000000100010 ]
b100010 ;
b100010 Z
1!
#261
b100011 Q
b100011 *
b1100 ?
b1100 4
b1100 =
b1100 >
b1100 9
b1100 <
b0 -
b0 L
b0 )
b0 M
1+
b1011 6
b1011 @
b1011 H
b1 2
b1 I
b1 '
b1 O
b1 Y
b1 7
b1 G
#262
b1101 ?
b1101 4
b1101 =
b1101 R
b1100 5
b1100 A
b1100 T
b1100 [
b1101 3
b1101 _
#263
b1101 5
b1101 A
b1101 T
b1101 [
#270
0!
#280
b1010 B
b1010000000000001 .
b1010000000000001 C
b1010000000000001 U
b100100 Q
b100100 *
b100011 g
b1100000000000000110100000000000101000000000000000000000000000000000000000000000000000000000000100011 $
b1100000000000000110100000000000101000000000000000000000000000000000000000000000000000000000000100011 ]
b100011 ;
b100011 Z
1!
#281
b0 >
b0 9
b0 <
0+
1%
b0 7
b0 G
#290
0!
#300
b1 B
b1101 a
b1000000000001 .
b1000000000001 C
b1000000000001 U
b100101 Q
b100101 *
b100100 g
b1101000000000000110100000000000101000000000000000000000000000000000000000000000000000000000000100100 $
b1101000000000000110100000000000101000000000000000000000000000000000000000000000000000000000000100100 ]
b100100 ;
b100100 Z
1!
#301
b0 ?
b0 4
b0 =
b1101 >
b1101 9
b1101 <
b1101 S
b1 &
b1 P
b1 \
b11 6
b11 @
b11 H
b0 2
b0 I
b0 '
b0 O
b0 Y
b1 7
b1 G
b1 (
b1 N
b1 X
b1101 8
b1101 ^
#302
b1110 5
b1110 A
b1110 T
b1110 [
#310
0!
#320
b1110 b
b10 F
b10 D
b1000 B
b1000000000000010 .
b1000000000000010 C
b1000000000000010 U
b100110 Q
b100110 *
b100101 g
b1101000000000000111000000000000101000000000000000000000000000000000000000000000000000000000000100101 $
b1101000000000000111000000000000101000000000000000000000000000000000000000000000000000000000000100101 ]
b100101 ;
b100101 Z
1!
#321
b1101 ?
b1101 4
b1101 =
b1110 >
b1110 9
b1110 <
b1110 S
11
0%
b0 &
b0 P
b0 \
b101 6
b101 @
b101 H
b1 2
b1 I
b10 '
b10 O
b10 Y
b0 (
b0 N
b0 X
b1110 8
b1110 ^
#322
b10100 ?
b10100 4
b10100 =
b10100 R
b1101 >
b1101 9
b1101 <
b1101 S
b1 5
b1 A
b1 T
b1 [
b10100 3
b10100 _
b1101 8
b1101 ^
#323
b0 5
b0 A
b0 T
b0 [
#330
0!
#340
b100010 F
b100010 D
b11 B
b11000000100010 .
b11000000100010 C
b11000000100010 U
b100111 Q
b100111 *
b100110 g
b1101000000000000111000000000000101000000000000000000000000000000000000000000000000000000000000100110 $
b1101000000000000111000000000000101000000000000000000000000000000000000000000000000000000000000100110 ]
b100110 ;
b100110 Z
1!
#341
b100010 Q
b100010 *
b0 ?
b0 4
b0 =
b0 >
b0 9
b0 <
b100010 -
b100010 L
b11 )
b11 M
01
b0 6
b0 @
b0 H
b0 2
b0 I
b0 '
b0 O
b0 Y
b0 7
b0 G
#342
b1101 R
b1101 3
b1101 _
#350
0!
#360
b1 F
b1 D
b1011 B
b1011000000000001 .
b1011000000000001 C
b1011000000000001 U
b100010 g
b1101000000000000111000000000000101000000000000000000000000000000000000000000000000000000000000100010 $
b1101000000000000111000000000000101000000000000000000000000000000000000000000000000000000000000100010 ]
b100010 ;
b100010 Z
1!
#361
b100011 Q
b100011 *
b1101 ?
b1101 4
b1101 =
b1101 >
b1101 9
b1101 <
b0 -
b0 L
b0 )
b0 M
1+
b1011 6
b1011 @
b1011 H
b1 2
b1 I
b1 '
b1 O
b1 Y
b1 7
b1 G
#362
b1110 ?
b1110 4
b1110 =
b1110 R
b1101 5
b1101 A
b1101 T
b1101 [
b1110 3
b1110 _
#363
b1110 5
b1110 A
b1110 T
b1110 [
#370
0!
#380
b1010 B
b1010000000000001 .
b1010000000000001 C
b1010000000000001 U
b100100 Q
b100100 *
b100011 g
b1101000000000000111000000000000101000000000000000000000000000000000000000000000000000000000000100011 $
b1101000000000000111000000000000101000000000000000000000000000000000000000000000000000000000000100011 ]
b100011 ;
b100011 Z
1!
#381
b0 >
b0 9
b0 <
0+
1%
b0 7
b0 G
#390
0!
#400
b1110 a
b1 B
b1000000000001 .
b1000000000001 C
b1000000000001 U
b100101 Q
b100101 *
b100100 g
b1110000000000000111000000000000101000000000000000000000000000000000000000000000000000000000000100100 $
b1110000000000000111000000000000101000000000000000000000000000000000000000000000000000000000000100100 ]
b100100 ;
b100100 Z
1!
#401
b0 ?
b0 4
b0 =
b1110 >
b1110 9
b1110 <
b1110 S
b1 &
b1 P
b1 \
b11 6
b11 @
b11 H
b0 2
b0 I
b0 '
b0 O
b0 Y
b1 7
b1 G
b1 (
b1 N
b1 X
b1110 8
b1110 ^
#402
b1111 5
b1111 A
b1111 T
b1111 [
#410
0!
#420
b10 F
b10 D
b1000 B
b1111 b
b1000000000000010 .
b1000000000000010 C
b1000000000000010 U
b100110 Q
b100110 *
b100101 g
b1110000000000000111100000000000101000000000000000000000000000000000000000000000000000000000000100101 $
b1110000000000000111100000000000101000000000000000000000000000000000000000000000000000000000000100101 ]
b100101 ;
b100101 Z
1!
#421
b1110 ?
b1110 4
b1110 =
b1111 >
b1111 9
b1111 <
b1111 S
11
0%
b0 &
b0 P
b0 \
b101 6
b101 @
b101 H
b1 2
b1 I
b10 '
b10 O
b10 Y
b0 (
b0 N
b0 X
b1111 8
b1111 ^
#422
b10100 ?
b10100 4
b10100 =
b10100 R
b1110 >
b1110 9
b1110 <
b1110 S
b1 5
b1 A
b1 T
b1 [
b10100 3
b10100 _
b1110 8
b1110 ^
#423
b0 5
b0 A
b0 T
b0 [
#430
0!
#440
b100010 F
b100010 D
b11 B
b11000000100010 .
b11000000100010 C
b11000000100010 U
b100111 Q
b100111 *
b100110 g
b1110000000000000111100000000000101000000000000000000000000000000000000000000000000000000000000100110 $
b1110000000000000111100000000000101000000000000000000000000000000000000000000000000000000000000100110 ]
b100110 ;
b100110 Z
1!
#441
b100010 Q
b100010 *
b0 ?
b0 4
b0 =
b0 >
b0 9
b0 <
b100010 -
b100010 L
b11 )
b11 M
01
b0 6
b0 @
b0 H
b0 2
b0 I
b0 '
b0 O
b0 Y
b0 7
b0 G
#442
b1110 R
b1110 3
b1110 _
#450
0!
#460
b1 F
b1 D
b1011 B
b1011000000000001 .
b1011000000000001 C
b1011000000000001 U
b100010 g
b1110000000000000111100000000000101000000000000000000000000000000000000000000000000000000000000100010 $
b1110000000000000111100000000000101000000000000000000000000000000000000000000000000000000000000100010 ]
b100010 ;
b100010 Z
1!
#461
b100011 Q
b100011 *
b1110 ?
b1110 4
b1110 =
b1110 >
b1110 9
b1110 <
b0 -
b0 L
b0 )
b0 M
1+
b1011 6
b1011 @
b1011 H
b1 2
b1 I
b1 '
b1 O
b1 Y
b1 7
b1 G
#462
b1111 ?
b1111 4
b1111 =
b1111 R
b1110 5
b1110 A
b1110 T
b1110 [
b1111 3
b1111 _
#463
b1111 5
b1111 A
b1111 T
b1111 [
#470
0!
#480
b1010 B
b1010000000000001 .
b1010000000000001 C
b1010000000000001 U
b100100 Q
b100100 *
b100011 g
b1110000000000000111100000000000101000000000000000000000000000000000000000000000000000000000000100011 $
b1110000000000000111100000000000101000000000000000000000000000000000000000000000000000000000000100011 ]
b100011 ;
b100011 Z
1!
#481
b0 >
b0 9
b0 <
0+
1%
b0 7
b0 G
#490
0!
#500
b1 B
b1111 a
b1000000000001 .
b1000000000001 C
b1000000000001 U
b100101 Q
b100101 *
b100100 g
b1111000000000000111100000000000101000000000000000000000000000000000000000000000000000000000000100100 $
b1111000000000000111100000000000101000000000000000000000000000000000000000000000000000000000000100100 ]
b100100 ;
b100100 Z
1!
#501
b0 ?
b0 4
b0 =
b1111 >
b1111 9
b1111 <
b1111 S
b1 &
b1 P
b1 \
b11 6
b11 @
b11 H
b0 2
b0 I
b0 '
b0 O
b0 Y
b1 7
b1 G
b1 (
b1 N
b1 X
b1111 8
b1111 ^
#502
b10000 5
b10000 A
b10000 T
b10000 [
#510
0!
#520
b10000 b
b10 F
b10 D
b1000 B
b1000000000000010 .
b1000000000000010 C
b1000000000000010 U
b100110 Q
b100110 *
b100101 g
b1111000000000001000000000000000101000000000000000000000000000000000000000000000000000000000000100101 $
b1111000000000001000000000000000101000000000000000000000000000000000000000000000000000000000000100101 ]
b100101 ;
b100101 Z
1!
#521
b1111 ?
b1111 4
b1111 =
b10000 >
b10000 9
b10000 <
b10000 S
11
0%
b0 &
b0 P
b0 \
b101 6
b101 @
b101 H
b1 2
b1 I
b10 '
b10 O
b10 Y
b0 (
b0 N
b0 X
b10000 8
b10000 ^
#522
b10100 ?
b10100 4
b10100 =
b10100 R
b1111 >
b1111 9
b1111 <
b1111 S
b1 5
b1 A
b1 T
b1 [
b10100 3
b10100 _
b1111 8
b1111 ^
#523
b0 5
b0 A
b0 T
b0 [
#530
0!
#540
b100010 F
b100010 D
b11 B
b11000000100010 .
b11000000100010 C
b11000000100010 U
b100111 Q
b100111 *
b100110 g
b1111000000000001000000000000000101000000000000000000000000000000000000000000000000000000000000100110 $
b1111000000000001000000000000000101000000000000000000000000000000000000000000000000000000000000100110 ]
b100110 ;
b100110 Z
1!
#541
b100010 Q
b100010 *
b0 ?
b0 4
b0 =
b0 >
b0 9
b0 <
b100010 -
b100010 L
b11 )
b11 M
01
b0 6
b0 @
b0 H
b0 2
b0 I
b0 '
b0 O
b0 Y
b0 7
b0 G
#542
b1111 R
b1111 3
b1111 _
#550
0!
#560
b1 F
b1 D
b1011 B
b1011000000000001 .
b1011000000000001 C
b1011000000000001 U
b100010 g
b1111000000000001000000000000000101000000000000000000000000000000000000000000000000000000000000100010 $
b1111000000000001000000000000000101000000000000000000000000000000000000000000000000000000000000100010 ]
b100010 ;
b100010 Z
1!
#561
b100011 Q
b100011 *
b1111 ?
b1111 4
b1111 =
b1111 >
b1111 9
b1111 <
b0 -
b0 L
b0 )
b0 M
1+
b1011 6
b1011 @
b1011 H
b1 2
b1 I
b1 '
b1 O
b1 Y
b1 7
b1 G
#562
b10000 ?
b10000 4
b10000 =
b10000 R
b1111 5
b1111 A
b1111 T
b1111 [
b10000 3
b10000 _
#563
b10000 5
b10000 A
b10000 T
b10000 [
#570
0!
#580
b1010 B
b1010000000000001 .
b1010000000000001 C
b1010000000000001 U
b100100 Q
b100100 *
b100011 g
b1111000000000001000000000000000101000000000000000000000000000000000000000000000000000000000000100011 $
b1111000000000001000000000000000101000000000000000000000000000000000000000000000000000000000000100011 ]
b100011 ;
b100011 Z
1!
#581
b0 >
b0 9
b0 <
0+
1%
b0 7
b0 G
#590
0!
#600
b10000 a
b1 B
b1000000000001 .
b1000000000001 C
b1000000000001 U
b100101 Q
b100101 *
b100100 g
b10000000000000001000000000000000101000000000000000000000000000000000000000000000000000000000000100100 $
b10000000000000001000000000000000101000000000000000000000000000000000000000000000000000000000000100100 ]
b100100 ;
b100100 Z
1!
#601
b0 ?
b0 4
b0 =
b10000 >
b10000 9
b10000 <
b10000 S
b1 &
b1 P
b1 \
b11 6
b11 @
b11 H
b0 2
b0 I
b0 '
b0 O
b0 Y
b1 7
b1 G
b1 (
b1 N
b1 X
b10000 8
b10000 ^
#602
b10001 5
b10001 A
b10001 T
b10001 [
#610
0!
#620
b10 F
b10 D
b1000 B
b10001 b
b1000000000000010 .
b1000000000000010 C
b1000000000000010 U
b100110 Q
b100110 *
b100101 g
b10000000000000001000100000000000101000000000000000000000000000000000000000000000000000000000000100101 $
b10000000000000001000100000000000101000000000000000000000000000000000000000000000000000000000000100101 ]
b100101 ;
b100101 Z
1!
#621
b10000 ?
b10000 4
b10000 =
b10001 >
b10001 9
b10001 <
b10001 S
11
0%
b0 &
b0 P
b0 \
b101 6
b101 @
b101 H
b1 2
b1 I
b10 '
b10 O
b10 Y
b0 (
b0 N
b0 X
b10001 8
b10001 ^
#622
b10100 ?
b10100 4
b10100 =
b10100 R
b10000 >
b10000 9
b10000 <
b10000 S
b1 5
b1 A
b1 T
b1 [
b10100 3
b10100 _
b10000 8
b10000 ^
#623
b0 5
b0 A
b0 T
b0 [
#630
0!
#640
b100010 F
b100010 D
b11 B
b11000000100010 .
b11000000100010 C
b11000000100010 U
b100111 Q
b100111 *
b100110 g
b10000000000000001000100000000000101000000000000000000000000000000000000000000000000000000000000100110 $
b10000000000000001000100000000000101000000000000000000000000000000000000000000000000000000000000100110 ]
b100110 ;
b100110 Z
1!
#641
b100010 Q
b100010 *
b0 ?
b0 4
b0 =
b0 >
b0 9
b0 <
b100010 -
b100010 L
b11 )
b11 M
01
b0 6
b0 @
b0 H
b0 2
b0 I
b0 '
b0 O
b0 Y
b0 7
b0 G
#642
b10000 R
b10000 3
b10000 _
#650
0!
#660
b1 F
b1 D
b1011 B
b1011000000000001 .
b1011000000000001 C
b1011000000000001 U
b100010 g
b10000000000000001000100000000000101000000000000000000000000000000000000000000000000000000000000100010 $
b10000000000000001000100000000000101000000000000000000000000000000000000000000000000000000000000100010 ]
b100010 ;
b100010 Z
1!
#661
b100011 Q
b100011 *
b10000 ?
b10000 4
b10000 =
b10000 >
b10000 9
b10000 <
b0 -
b0 L
b0 )
b0 M
1+
b1011 6
b1011 @
b1011 H
b1 2
b1 I
b1 '
b1 O
b1 Y
b1 7
b1 G
#662
b10001 ?
b10001 4
b10001 =
b10001 R
b10000 5
b10000 A
b10000 T
b10000 [
b10001 3
b10001 _
#663
b10001 5
b10001 A
b10001 T
b10001 [
#670
0!
#680
b1010 B
b1010000000000001 .
b1010000000000001 C
b1010000000000001 U
b100100 Q
b100100 *
b100011 g
b10000000000000001000100000000000101000000000000000000000000000000000000000000000000000000000000100011 $
b10000000000000001000100000000000101000000000000000000000000000000000000000000000000000000000000100011 ]
b100011 ;
b100011 Z
1!
#681
b0 >
b0 9
b0 <
0+
1%
b0 7
b0 G
#690
0!
#700
b1 B
b10001 a
b1000000000001 .
b1000000000001 C
b1000000000001 U
b100101 Q
b100101 *
b100100 g
b10001000000000001000100000000000101000000000000000000000000000000000000000000000000000000000000100100 $
b10001000000000001000100000000000101000000000000000000000000000000000000000000000000000000000000100100 ]
b100100 ;
b100100 Z
1!
#701
b0 ?
b0 4
b0 =
b10001 >
b10001 9
b10001 <
b10001 S
b1 &
b1 P
b1 \
b11 6
b11 @
b11 H
b0 2
b0 I
b0 '
b0 O
b0 Y
b1 7
b1 G
b1 (
b1 N
b1 X
b10001 8
b10001 ^
#702
b10010 5
b10010 A
b10010 T
b10010 [
#710
0!
#720
b10010 b
b10 F
b10 D
b1000 B
b1000000000000010 .
b1000000000000010 C
b1000000000000010 U
b100110 Q
b100110 *
b100101 g
b10001000000000001001000000000000101000000000000000000000000000000000000000000000000000000000000100101 $
b10001000000000001001000000000000101000000000000000000000000000000000000000000000000000000000000100101 ]
b100101 ;
b100101 Z
1!
#721
b10001 ?
b10001 4
b10001 =
b10010 >
b10010 9
b10010 <
b10010 S
11
0%
b0 &
b0 P
b0 \
b101 6
b101 @
b101 H
b1 2
b1 I
b10 '
b10 O
b10 Y
b0 (
b0 N
b0 X
b10010 8
b10010 ^
#722
b10100 ?
b10100 4
b10100 =
b10100 R
b10001 >
b10001 9
b10001 <
b10001 S
b1 5
b1 A
b1 T
b1 [
b10100 3
b10100 _
b10001 8
b10001 ^
#723
b0 5
b0 A
b0 T
b0 [
#730
0!
#740
b100010 F
b100010 D
b11 B
b11000000100010 .
b11000000100010 C
b11000000100010 U
b100111 Q
b100111 *
b100110 g
b10001000000000001001000000000000101000000000000000000000000000000000000000000000000000000000000100110 $
b10001000000000001001000000000000101000000000000000000000000000000000000000000000000000000000000100110 ]
b100110 ;
b100110 Z
1!
#741
b100010 Q
b100010 *
b0 ?
b0 4
b0 =
b0 >
b0 9
b0 <
b100010 -
b100010 L
b11 )
b11 M
01
b0 6
b0 @
b0 H
b0 2
b0 I
b0 '
b0 O
b0 Y
b0 7
b0 G
#742
b10001 R
b10001 3
b10001 _
#750
0!
#760
b1 F
b1 D
b1011 B
b1011000000000001 .
b1011000000000001 C
b1011000000000001 U
b100010 g
b10001000000000001001000000000000101000000000000000000000000000000000000000000000000000000000000100010 $
b10001000000000001001000000000000101000000000000000000000000000000000000000000000000000000000000100010 ]
b100010 ;
b100010 Z
1!
#761
b100011 Q
b100011 *
b10001 ?
b10001 4
b10001 =
b10001 >
b10001 9
b10001 <
b0 -
b0 L
b0 )
b0 M
1+
b1011 6
b1011 @
b1011 H
b1 2
b1 I
b1 '
b1 O
b1 Y
b1 7
b1 G
#762
b10010 ?
b10010 4
b10010 =
b10010 R
b10001 5
b10001 A
b10001 T
b10001 [
b10010 3
b10010 _
#763
b10010 5
b10010 A
b10010 T
b10010 [
#770
0!
#780
b1010 B
b1010000000000001 .
b1010000000000001 C
b1010000000000001 U
b100100 Q
b100100 *
b100011 g
b10001000000000001001000000000000101000000000000000000000000000000000000000000000000000000000000100011 $
b10001000000000001001000000000000101000000000000000000000000000000000000000000000000000000000000100011 ]
b100011 ;
b100011 Z
1!
#781
b0 >
b0 9
b0 <
0+
1%
b0 7
b0 G
#790
0!
#800
b10010 a
b1 B
b1000000000001 .
b1000000000001 C
b1000000000001 U
b100101 Q
b100101 *
b100100 g
b10010000000000001001000000000000101000000000000000000000000000000000000000000000000000000000000100100 $
b10010000000000001001000000000000101000000000000000000000000000000000000000000000000000000000000100100 ]
b100100 ;
b100100 Z
1!
